{
  "config": {
    "max_distance": 400,
    "transfer_speed": 400,
    "transfer_delay": 0
  },
  "cells": [
    {
      "x": 135,
      "y": 135,
      "amount": 4,
      "team": 1,
      "bonus": 1
    },
    {
      "x": 405,
      "y": 135,
      "amount": 5,
      "bonus": 1
    },
    {
      "x": 675,
      "y": 135,
      "amount": 5,
      "bonus": 1
    },
    {
      "x": 945,
      "y": 135,
      "amount": 4,
      "team": 2,
      "bonus": 1
    },
    {
      "x": 135,
      "y": 405,
      "amount": 5,
      "bonus": 1
    },
    {
      "x": 405,
      "y": 405,
      "amount": 5,
      "bonus": 1
    },
    {
      "x": 675,
      "y": 405,
      "amount": 5,
      "bonus": 1
    },
    {
      "x": 945,
      "y": 405,
      "amount": 5,
      "bonus": 1
    },
    {
      "x": 135,
      "y": 675,
      "amount": 5,
      "bonus": 1
    },
    {
      "x": 405,
      "y": 675,
      "amount": 5,
      "bonus": 1
    },
    {
      "x": 675,
      "y": 675,
      "amount": 5,
      "bonus": 1
    },
    {
      "x": 945,
      "y": 675,
      "amount": 5,
      "bonus": 1
    },
    {
      "x": 135,
      "y": 945,
      "amount": 4,
      "team": 3,
      "bonus": 1
    },
    {
      "x": 405,
      "y": 945,
      "amount": 5,
      "bonus": 1
    },
    {
      "x": 675,
      "y": 945,
      "amount": 5,
      "bonus": 1
    },
    {
      "x": 945,
      "y": 945,
      "amount": 4,
      "team": 4,
      "bonus": 1
    }
  ]
}
